{
  "buildFiles": [
    "/Users/muhammadriza/AndroidStudioProjects/mymovieapp/app/src/main/cpp/CMakeLists.txt"
  ],
  "cleanCommandsComponents": [
    [
      "/Users/muhammadriza/Library/Android/sdk/cmake/3.22.1/bin/ninja",
      "-C",
      "/Users/muhammadriza/AndroidStudioProjects/mymovieapp/app/.cxx/RelWithDebInfo/4a3r1i5a/x86",
      "clean"
    ]
  ],
  "buildTargetsCommandComponents": [
    "/Users/muhammadriza/Library/Android/sdk/cmake/3.22.1/bin/ninja",
    "-C",
    "/Users/muhammadriza/AndroidStudioProjects/mymovieapp/app/.cxx/RelWithDebInfo/4a3r1i5a/x86",
    "{LIST_OF_TARGETS_TO_BUILD}"
  ],
  "libraries": {
    "movieapps::@6890427a1f51a3e7e1df": {
      "toolchain": "toolchain",
      "abi": "x86",
      "artifactName": "movieapps",
      "output": "/Users/muhammadriza/AndroidStudioProjects/mymovieapp/app/build/intermediates/cxx/RelWithDebInfo/4a3r1i5a/obj/x86/libmovieapps.so",
      "runtimeFiles": []
    }
  },
  "toolchains": {
    "toolchain": {
      "cCompilerExecutable": "/Users/muhammadriza/Library/Android/sdk/ndk/25.1.8937393/toolchains/llvm/prebuilt/darwin-x86_64/bin/clang.lld",
      "cppCompilerExecutable": "/Users/muhammadriza/Library/Android/sdk/ndk/25.1.8937393/toolchains/llvm/prebuilt/darwin-x86_64/bin/clang++.lld"
    }
  },
  "cFileExtensions": [],
  "cppFileExtensions": [
    "cpp"
  ]
}